^C:\USERS\PAOLO\DOCUMENTS\GITLAB\ASDASD\ILLICIT-SPRX\MAIN\ILLICIT\PS3_DEBUG\ANTI.O|C:\USERS\PAOLO\DOCUMENTS\GITLAB\ASDASD\ILLICIT-SPRX\MAIN\ILLICIT\PS3_DEBUG\MENU.O|C:\USERS\PAOLO\DOCUMENTS\GITLAB\ASDASD\ILLICIT-SPRX\MAIN\ILLICIT\PS3_DEBUG\MESSAGES.O|C:\USERS\PAOLO\DOCUMENTS\GITLAB\ASDASD\ILLICIT-SPRX\MAIN\ILLICIT\PS3_DEBUG\PRINTF.O|C:\USERS\PAOLO\DOCUMENTS\GITLAB\ASDASD\ILLICIT-SPRX\MAIN\ILLICIT\PS3_DEBUG\PRX.O
C:\USERS\PAOLO\DOCUMENTS\GITLAB\ASDASD\ILLICIT-SPRX\MAIN\PS3_DEBUG\ILLICIT.SPRX
^C:\USERS\PAOLO\DOCUMENTS\GITLAB\PS3-MOD-MENU\MAIN\ILLICIT\PS3_DEBUG\ANTI.O|C:\USERS\PAOLO\DOCUMENTS\GITLAB\PS3-MOD-MENU\MAIN\ILLICIT\PS3_DEBUG\MENU.O|C:\USERS\PAOLO\DOCUMENTS\GITLAB\PS3-MOD-MENU\MAIN\ILLICIT\PS3_DEBUG\MESSAGES.O|C:\USERS\PAOLO\DOCUMENTS\GITLAB\PS3-MOD-MENU\MAIN\ILLICIT\PS3_DEBUG\PRINTF.O|C:\USERS\PAOLO\DOCUMENTS\GITLAB\PS3-MOD-MENU\MAIN\ILLICIT\PS3_DEBUG\PRX.O
C:\USERS\PAOLO\DOCUMENTS\GITLAB\PS3-MOD-MENU\MAIN\PS3_DEBUG\ILLICIT.SPRX
